[gd_resource type="Theme" load_steps=6 format=2]

[ext_resource path="res://assets/fonts/Anton.ttf" type="DynamicFontData" id=1]

[sub_resource type="StyleBoxFlat" id=2]
bg_color = Color( 0, 0.329412, 0.968627, 1 )

[sub_resource type="StyleBoxFlat" id=3]
bg_color = Color( 0, 0.254902, 0.74902, 1 )

[sub_resource type="StyleBoxFlat" id=4]
bg_color = Color( 0, 0.2, 0.584314, 1 )

[sub_resource type="DynamicFont" id=1]
size = 48
outline_size = 1
outline_color = Color( 0, 0, 0, 1 )
font_data = ExtResource( 1 )

[resource]
default_font = SubResource( 1 )
Button/colors/ = Color( 0.00392157, 0, 1, 1 )
Button/colors/font_color = Color( 0.88, 0.88, 0.88, 1 )
Button/colors/font_color_disabled = Color( 0.9, 0.9, 0.9, 0.2 )
Button/colors/font_color_hover = Color( 0.94, 0.94, 0.94, 1 )
Button/colors/font_color_pressed = Color( 1, 1, 1, 1 )
Button/constants/hseparation = 2
Button/fonts/font = null
Button/styles/disabled = null
Button/styles/focus = SubResource( 2 )
Button/styles/hover = SubResource( 2 )
Button/styles/normal = SubResource( 3 )
Button/styles/pressed = SubResource( 4 )
